Diseños experimentales y cuasiexperimentales - 1 R y el tidyverse
…
Si bien esta funcionalidad parece algo que complica las cosas y que no trae demasiados beneficios con un ejemplo tan simple, más adelante veremos que puede ser de gran utilidad, al ayudar a disminuir la cantidad de línes de código y de variables intermedias.

1.2.3 {dplyr} y sus verbos

Una de las cosas más útiles del tidyverse -para el tipo de procesamiento de datos que vamos a llevar a cabo en este libro- son los verbos de {dplyr} Estas funciones no permiten agregar columnas, resumir la información, filtrar filas, seleccionar columnas, etc5. Todas estas acciones las podemos hacer en la base de datos completa o en una parte de ella agrupada de acuerdo a algún criterio. Vayamos de a poco.
5 Para más detalles sobre los verbos disponibles en el paquete {dplyr} pueden visitar la página de referencia.

1.2.3.1 El verbo filter

Volvamos a los datos de los JJOO de verano. Supongamos que nos queremos quedar sólo con las medallas de Argentina. Para este tipo de filtrado de filas (o casos, o mediciones) {dplyr} tiene un verbo que se llama filter y funciona de la siguiente forma6:
6 Se preguntarán por qué antes de la función filter aparece un dplyr::. Esto es simplemente una forma de decirle a R que la función filter que debe utilizar es la del paquete {dplyr}. Esta es una práctica recomendable sobre todo para funciones con nombres comunes como filter o select.

summer |> dplyr::filter(Country == "ARG") |> head(10)
#> # A tibble: 10 × 9
#>    Year City  Sport     Discipline Athlete          Country Gender
#>   <dbl> <chr> <chr>     <chr>      <chr>            <chr>   <chr> 
#> 1  1924 Paris Athletics Athletics  BRUNETO, Luis    ARG     Men   
#> 2  1924 Paris Boxing    Boxing     PORZIO, Alfredo  ARG     Men   
#> 3  1924 Paris Boxing    Boxing     QUARTUCCI, Pedro ARG     Men   
#> 4  1924 Paris Boxing    Boxing     COPELLO, Alfredo ARG     Men   
#> 5  1924 Paris Boxing    Boxing     MENDEZ, Hector   ARG     Men   
#> 6  1924 Paris Polo      Polo       KENNY, Arturo    ARG     Men   
#> # ℹ 4 more rows
#> # ℹ 2 more variables: Event <chr>, Medal <chr>
…
summer |> dplyr::filter(Country == "ARG" & Year == 2004) |> head(5)
#> # A tibble: 5 × 9
#>    Year City   Sport      Discipline Athlete                   Country Gender
#>   <dbl> <chr>  <chr>      <chr>      <chr>                     <chr>   <chr> 
#> 1  2004 Athens Aquatics   Swimming   BARDACH, Georgina         ARG     Women 
#> 2  2004 Athens Basketball Basketball DELFINO, Carlos Francisco ARG     Men   
#> 3  2004 Athens Basketball Basketball FERNANDEZ, Gabriel Diego  ARG     Men   
#> 4  2004 Athens Basketball Basketball GINOBILI, Emanuel David   ARG     Men   
#> 5  2004 Athens Basketball Basketball GUTIERREZ, Leonardo Mart… ARG     Men   
#> # ℹ 2 more variables: Event <chr>, Medal <chr>

Que linda esa Generación Dorada🏅, ¿no?. Por otro lado, si nos queremos quedar con las medallas de Argentina o Brasil debemos utilizar el operador lógico “o”, cuyo símbolo en R es |:

summer |> dplyr::filter(Country == "ARG" | Country == "BRA") |> head(10)
#> # A tibble: 10 × 9
#>    Year City    Sport    Discipline Athlete                   Country Gender
#>   <dbl> <chr>   <chr>    <chr>      <chr>                     <chr>   <chr> 
#> 1  1920 Antwerp Shooting Shooting   PARAENSE, Guilherme       BRA     Men   
#> 2  1920 Antwerp Shooting Shooting   BARBOSA, Dario            BRA     Men   
#> 3  1920 Antwerp Shooting Shooting   DA COSTA, Afranio Antonio BRA     Men   
#> 4  1920 Antwerp Shooting Shooting   PARAENSE, Guilherme       BRA     Men   
#> 5  1920 Antwerp Shooting Shooting   SOLEDADE, Fernando        BRA     Men   
#> 6  1920 Antwerp Shooting Shooting   WOLF, Sebastiao           BRA     Men   
#> # ℹ 4 more rows
#> # ℹ 2 more variables: Event <chr>, Medal <chr>

Aunque, cuando queremos filtrar por varios valores de una variable, una alternativa muy útil es agrupar esos valores en un vector utilizando c().

summer |> dplyr::filter(Country %in% c("ARG", "BRA")) |> head(10)
#> # A tibble: 10 × 9
#>    Year City    Sport    Discipline Athlete                   Country Gender
#>   <dbl> <chr>   <chr>    <chr>      <chr>                     <chr>   <chr> 
#> 1  1920 Antwerp Shooting Shooting   PARAENSE, Guilherme       BRA     Men   
#> 2  1920 Antwerp Shooting Shooting   BARBOSA, Dario            BRA     Men   
#> 3  1920 Antwerp Shooting Shooting   DA COSTA, Afranio Antonio BRA     Men   
#> 4  1920 Antwerp Shooting Shooting   PARAENSE, Guilherme       BRA     Men   
#> 5  1920 Antwerp Shooting Shooting   SOLEDADE, Fernando        BRA     Men   
#> 6  1920 Antwerp Shooting Shooting   WOLF, Sebastiao           BRA     Men   
#> # ℹ 4 more rows
#> # ℹ 2 more variables: Event <chr>, Medal <chr>
…
¿Perdidos? Tomensé su tiempo para tratar de entender qué pasó y prueben distintas alternativas en sus computadoras.

1.2.3.4 El verbo summarise

Por último, el verbo summarise nos permite sacar medidas resumen de nuestros datos. Empecemos con algo obvio: ¿Cuántas medallas de oro ganó cada país en la historia de los juegos olímpicos?. Para esto vamos a usar una funciónd e dplyr{} llamada group_by que nos permite agrupar los casos de acuerdo a una variable y luego aplicar el verbo summarise para obtener, en este caso, la cantidad de medallas de oro por país. Para esto usamos la función n() que nos devuelve la cantidad de casos (o filas) que hay en cada grupo y luego la función arrange para ordenar los resultados de mayor a menor10.
10 La función arrange nos ordena los datos de acuerdo a la variable que le enviemos como parámetro de menor a mayor. Si queremos que ordene de mayor a menor debemos agregar la función desc en el argumento. Más detalles acá.

summer |> 
  dplyr::filter(Medal == "Gold") |>
  group_by(Country) |>
  dplyr::summarise(num_medals = n()) |>
  arrange(desc(num_medals)) |>
  head(10)
#> # A tibble: 10 × 2
#>   Country num_medals
#>   <chr>        <int>
#> 1 USA           2235
#> 2 URS            838
#> 3 GBR            546
#> 4 ITA            476
#> 5 GER            452
#> 6 HUN            412
#> # ℹ 4 more rows
…
